Multilevel Models, Part 1
…
3 counties have only 1

8 have only 2

11 have only 3

Pooling

Combine data from multiple counties to get more samples

Complete pooling: Ignore counties and average all
measurements together.

## # A tibble: 85 × 6
##     fips  Uppm county          county_id homes log_uranium
##    <int> <dbl> <ord>               <int> <int>       <dbl>
##  1 27087 1.16  MAHNOMEN               42     1     0.150  
##  2 27101 1.49  MURRAY                 50     1     0.399  
##  3 27167 1.27  WILKIN                 82     1     0.236  
##  4 27031 0.604 COOK                   16     2    -0.505  
##  5 27045 1.51  FILLMORE               23     2     0.415  
##  6 27073 1.36  LAC QUI PARLE          36     2     0.311  
##  7 27095 0.811 MILLE LACS             47     2    -0.210  
##  8 27121 1.32  POPE                   60     2     0.281  
##  9 27133 1.70  ROCK                   65     2     0.528  
## 10 27149 1.60  STEVENS                73     2     0.471  
## 11 27173 1.43  YELLOW MEDICINE        85     2     0.355  
## 12 27005 0.893 BECKER                  3     3    -0.113  
## 13 27011 1.47  BIG STONE               6     3     0.387  
## 14 27039 1.30  DODGE                  20     3     0.264  
## 15 27059 0.471 ISANTI                 29     3    -0.752  
## 16 27069 0.992 KITTSON                34     3    -0.00780
## 17 27105 1.50  NOBLES                 52     3     0.405  
## 18 27107 1.30  NORMAN                 53     3     0.265  
## 19 27113 0.929 PENNINGTON             56     3    -0.0740 
## 20 27129 1.46  RENVILLE               63     3     0.381  
## 21 27153 0.954 TODD                   75     3    -0.0468 
## 22 27165 1.20  WATONWAN               81     3     0.183  
## 23 27001 0.502 AITKIN                  1     4    -0.689  
## 24 27009 0.867 BENTON                  5     4    -0.143  
## 25 27015 1.32  BROWN                   8     4     0.278  
## # … with 60 more rows
…
